^C:\USERS\KONOV\SOURCE\REPOS\DAY-6-4-10-2023(2)\HOMEWORK\TASKS\TASK4\TASK4.CPP
C:\USERS\KONOV\SOURCE\REPOS\DAY-6-4-10-2023(2)\HOMEWORK\TASKS\TASK4\DEBUG\VC143.PDB
C:\USERS\KONOV\SOURCE\REPOS\DAY-6-4-10-2023(2)\HOMEWORK\TASKS\TASK4\DEBUG\VC143.IDB
C:\USERS\KONOV\SOURCE\REPOS\DAY-6-4-10-2023(2)\HOMEWORK\TASKS\TASK4\DEBUG\TASK4.OBJ
