^C:\USERS\KONOV\SOURCE\REPOS\DAY-6-4-10-2023(2)\HOMEWORK\TASKS\TASK8\TASK8.CPP
C:\USERS\KONOV\SOURCE\REPOS\DAY-6-4-10-2023(2)\HOMEWORK\TASKS\TASK8\DEBUG\VC143.PDB
C:\USERS\KONOV\SOURCE\REPOS\DAY-6-4-10-2023(2)\HOMEWORK\TASKS\TASK8\DEBUG\VC143.IDB
C:\USERS\KONOV\SOURCE\REPOS\DAY-6-4-10-2023(2)\HOMEWORK\TASKS\TASK8\DEBUG\TASK8.OBJ
