^C:\USERS\KONOV\SOURCE\REPOS\DAY-6-4-10-2023(2)\HOMEWORK\TASKS\TASK10\TASK10.CPP
C:\USERS\KONOV\SOURCE\REPOS\DAY-6-4-10-2023(2)\HOMEWORK\TASKS\TASK10\DEBUG\VC143.PDB
C:\USERS\KONOV\SOURCE\REPOS\DAY-6-4-10-2023(2)\HOMEWORK\TASKS\TASK10\DEBUG\VC143.IDB
C:\USERS\KONOV\SOURCE\REPOS\DAY-6-4-10-2023(2)\HOMEWORK\TASKS\TASK10\DEBUG\TASK10.OBJ
