^C:\USERS\KONOV\SOURCE\REPOS\DAY-6-4-10-2023(2)\HOMEWORK\TASKS\TASK10\DEBUG\TASK10.OBJ
C:\USERS\KONOV\SOURCE\REPOS\DAY-6-4-10-2023(2)\HOMEWORK\TASKS\TASK10\DEBUG\TASK10.ILK
C:\USERS\KONOV\SOURCE\REPOS\DAY-6-4-10-2023(2)\HOMEWORK\TASKS\TASK10\DEBUG\TASK10.EXE
C:\USERS\KONOV\SOURCE\REPOS\DAY-6-4-10-2023(2)\HOMEWORK\TASKS\TASK10\DEBUG\TASK10.PDB
